#Ekin(GeV), dNdE(m^2 s sr GeV)^-1
0.0970172 70895.8
0.106719 64725.8
0.11739100000000001 59002.3
0.12913 53693.7
0.142043 48770.6
0.15624700000000002 44206.
0.17187200000000002 39975.1
0.189059 36055.200000000004
0.207965 32425.3
0.228762 29066.9
0.25163800000000003 25962.8
0.276801 23097.7
0.30448200000000003 20457.9
0.33493 18031.
0.368423 15805.6
0.405265 13771.300000000001
0.44579199999999997 11922.7
0.490371 10249.300000000001
0.539408 8742.37
0.593349 7393.99
0.652683 6196.42
0.717952 5141.84
0.789747 4222.14
0.868722 3428.7
0.955594 2752.34
1.05115 2183.23
1.15627 1711.01
1.2719 1324.8700000000001
1.3990799999999999 1013.87
1.53899 767.132
1.6928900000000002 574.234
1.8621800000000002 425.449
2.0484 311.983
2.25324 226.05399999999997
2.47856 161.855
2.72642 115.286
2.99906 82.0316
3.2989699999999997 58.4923
3.62887 41.8839
3.99175 30.152
4.39093 21.827599999999997
4.83002 15.8834
5.313020000000001 11.6091
5.84432 8.51521
6.4287600000000005 6.26304
7.07163 4.61617
7.7788 3.4077499999999996
8.55668 2.5187500000000003
9.41234 1.86347
10.3536 1.37974
11.3889 1.02222
12.5278 0.757751
13.780600000000002 0.561952
15.158700000000001 0.41690099999999997
16.674500000000002 0.30938899999999997
18.342 0.229651
20.1762 0.170519
22.1938 0.126611
24.4132 0.0940395
26.8545 0.0698591
29.54 0.05190139999999999
32.494 0.0385424
35.7434 0.0286438
39.317699999999995 0.021256599999999997
43.2495 0.0158183
47.574400000000004 0.0117011
52.331900000000005 0.0087099
57.565 0.0064671
63.3215 0.0048007300000000004
69.6537 0.00356301
76.6191 0.00264381
84.281 0.00196128
92.7091 0.00145457
101.98 0.00107847
112.178 0.0007993739999999999
123.396 0.000592322
135.735 0.00043875100000000003
149.309 0.00032488600000000003
164.24 0.000240484
180.66400000000002 0.00017794099999999998
198.73000000000002 0.000131609
218.603 0.00009730169999999999
240.463 0.0000719046
264.51 0.0000531109
290.961 0.000039210300000000006
320.057 0.0000289318
352.063 0.000021335300000000002
387.269 0.0000157233
425.996 0.0000115791
468.595 8.52056e-6
515.455 6.26438e-6
567.0 4.60108e-6
623.7 3.37556e-6
686.07 2.4732300000000003e-6
754.677 1.8093200000000001e-6
